{
    "help": "https://data.data4citizen.jp/api/3/action/help_show?name=datastore_search",
    "success": true,
    "result": {
        "resource_id": "278639b4-8f7f-4bda-b36d-55711f19552b",
        "fields": [
            {
                "type": "int4",
                "id": "_id"
            },
            {
                "type": "text",
                "id": "start_date"
            },
            {
                "type": "text",
                "id": "end_date"
            },
            {
                "type": "text",
                "id": "start_time"
            },
            {
                "type": "text",
                "id": "end_time"
            },
            {
                "type": "text",
                "id": "title"
            },
            {
                "type": "text",
                "id": "description"
            },
            {
                "type": "text",
                "id": "bosyu_start"
            },
            {
                "type": "text",
                "id": "bosyu_end"
            },
            {
                "type": "text",
                "id": "bosyu_description"
            },
            {
                "type": "text",
                "id": "link"
            },
            {
                "type": "text",
                "id": "place"
            },
            {
                "type": "text",
                "id": "x"
            },
            {
                "type": "text",
                "id": "y"
            },
            {
                "type": "text",
                "id": "contact"
            }
        ],
        "records": [
            {
                "bosyu_start": "",
                "description": "紅葉時期にあわせ、鶴ヶ城公園内をライトアップします。#nr#秋の夜長、光に照らされた幻想的な美しさのなか鶴ヶ城公園を散歩してみてはいかがですか。#nr##nr#開催期間 10月中旬-11月中旬#nr# ",
                "end_date": "0000/00/00",
                "title": "鶴ヶ城紅葉ライトアップ",
                "bosyu_description": "",
                "start_time": "16:30",
                "contact": "会津若松市観光課　電話0242-39-1251 ",
                "link": "http://www.aizukanko.com/event/103/",
                "end_time": "21:00",
                "x": "139.930382967",
                "y": "37.4875352834",
                "place": "鶴ヶ城公園 ",
                "_id": 1,
                "start_date": "0000/00/00",
                "bosyu_end": ""
            },
            {
                "bosyu_start": "2012/11/12",
                "description": "　新たな年、新年を迎えるにあたり、参加者の皆様に懇親を深めていただく場として、毎年、同時期に開催している交歓会です。#nr#　事前の申し込みが必要です。#nr#　交歓会当日は会場駐車場の混雑が予想されます。御来場の際は公共交通機関等を利用ください。",
                "end_date": "2013/01/04",
                "title": "新年市民交歓会",
                "bosyu_description": "●会費#nr#　１人1000円を添えて、お申込ください。#nr#　土日祝日を除く、午前８時30分から午後５時15分まで#nr#　（あいづ農業協同組合本店のみ午前８時30分から午後５時まで）#nr#●申込受付場所#nr#　会津若松市役所総務課（本庁舎２階）#nr#　会津若松市北会津支所総務課#nr#　会津若松市河東支所総務課#nr#　会津若松商工会議所#nr#　あいづ農業協同組合本店#nr#　会津若松市農業委員会事務局（栄町第２庁舎２階）",
                "start_time": "11:00",
                "contact": "新年市民交歓会事務局（総務部総務課総務管財グループ内）#nr#0242-39-1211",
                "link": "",
                "end_time": "12:00",
                "x": "139.933129549",
                "y": "37.497443966",
                "place": "ブライダルルネッサンス中の島　２階　インペリアルホール#nr#（会津若松市上町２番38号）",
                "_id": 2,
                "start_date": "2013/01/04",
                "bosyu_end": "2012/11/30"
            },
            {
                "bosyu_start": "",
                "description": "市民の皆様の生命と財産を守るために、日夜活躍している市消防団が、新年を迎えるにあたり、統制のとれた行進を披露いたします。",
                "end_date": "0000/00/00",
                "title": "平成２５年会津若松市消防出初式",
                "bosyu_description": "",
                "start_time": "09:30",
                "contact": "防災安全課消防防災グループ#nr#電話：0242-39-1227#nr#メール：bosaianzen@tw.city.aizuwakamatsu.fukushima.jp",
                "link": "http://www.city.aizuwakamatsu.fukushima.jp/docs/2007080300271/",
                "end_time": "12:00",
                "x": "139.9380111694",
                "y": "37.487518257",
                "place": "観閲式・分列行進＝北出丸大通り-會津風雅堂#nr#　　　　　　式典＝會津風雅堂#nr#行進コース：http://goo.gl/maps/UpYbk",
                "_id": 3,
                "start_date": "2013/01/06",
                "bosyu_end": ""
            },
            {
                "bosyu_start": "",
                "description": "いつまでも「いきいき」と元気で、「わくわく」した気持ちを持ち続けることができるように、元気な時から介護予防に取り組みましょう#nr##nr#■日時：平成24年12月4日（火）-平成25年1月29日（火）の毎週火曜日（1月1日は休み）全部で8回#nr#■対象者：おおむね65歳以上で15分程度の運動ができ、要支援及び要介護認定を受けていない方#nr#■内容：体力測定、簡単ストレッチ、バランス体操、脳トレ、食生活や口腔ケアの話等#nr#■定員：25名#nr##nr#※申込み受付は終了しました。",
                "end_date": "2013/01/08",
                "title": "いきいきわくわく介護予防教室",
                "bosyu_description": "",
                "start_time": "10:00",
                "contact": "高齢福祉課　39-1290",
                "link": "",
                "end_time": "11:30",
                "x": "139.9307799339",
                "y": "37.4755051935",
                "place": "城南コミュニティセンター",
                "_id": 4,
                "start_date": "2013/01/08",
                "bosyu_end": ""
            },
            {
                "bosyu_start": "2020/10/23",
                "description": "ＪＲ広田駅前通りで開催される、河東地区恒例の初市です。#nr#縁起物・福袋2020/10/23",
                "end_date": "2013/01/08",
                "title": "会津かわひがし八日市",
                "bosyu_description": "15:00",
                "start_time": "10:00",
                "contact": "",
                "link": "★【北会津公民館お茶の間ひろば】　本日大広間開放日",
                "end_time": "18:00",
                "x": "",
                "y": "",
                "place": "【目的：地域の人々の交流の場と自由な居場所づくりの場です】#nr##nr#★月２回　１:指定する火曜日：お誕生会や活動メニューあり）#nr#　　　　　２:指定する金曜日：大広間開放日（10時から3時まで）#nr#　　　　　#nr#★１０／２３（金）大広間開放日（１０時から３時の間）#nr##nr#事前に北会津公民館（電話：58-3111）にお問い合わせください。#nr#利用の例）・ママ友の交流の場に。#nr#ちびっ子は大広間でのびのび、ママは見守りながらおしゃべりの場にどうぞ。#nr##nr#・お友達の憩いの場に。#nr#友達に手芸を教わるのに、自宅に集まるのはちょっとぉ・・・という時など。#nr#・少しおうちから出て、ほかの人とおしゃべりや何となく過ごしたい。#nr##nr#【こんなこと思っている方は是非参加ください】#nr#・固定化されたものでなく、気ままな体験参加や活動をしたい。みているだけでもいい。#nr#・趣味で覚えたことを、ほかの人に観てもらったり、聴いてもらったり、教えることをしてみたい・・・・・。などと思っている方は、是非、参加してみてください。そして、北会津公民館をどうぞご利用ください。のぞくだけでもどうぞ！",
                "_id": 5,
                "start_date": "2013/01/08",
                "bosyu_end": "10:00"
            }
        ],
        "_links": {
            "start": "/api/action/datastore_search?limit=5&resource_id=278639b4-8f7f-4bda-b36d-55711f19552b",
            "next": "/api/action/datastore_search?offset=5&limit=5&resource_id=278639b4-8f7f-4bda-b36d-55711f19552b"
        },
        "limit": 5,
        "total": 5608
    }
}